3 Mapping Carl Nielsens Works | _main.knit
…
3.2 Load data

The code below reads data from a RDS file named “cnw_dataframe.rds” and stores it in a variable called cnw.A RDS-file is a single-object R data file used to save and load one R object (like a model or dataframe).

cnw <- readRDS(url("https://raw.githubusercontent.com/maxodsbjerg/MappingCarlNielsensWorks/refs/heads/main/data-output/cnw_dataframe.rds"))

3.3 Which authors has Carl Nielsen composed most music to:

This code takes the data frame cnw, keeps only rows where author is not an empty string, and then counts how many times each author appears, returning the counts sorted from most to least frequent.

cnw %>% 
  filter(author != "") %>% 
  count(author, sort = TRUE)

## # A tibble: 103 × 2
##    author                    n
##    <chr>                 <int>
##  1 N.F.S. Grundtvig         44
##  2 Adam Oehlenschläger      17
##  3 Helge Rode               16
##  4 J.P. Jacobsen            15
##  5 Jeppe Aakjær             15
##  6 Ludvig Holstein          13
##  7 L.C. Nielsen             11
##  8 Hans Adolph Brorson      10
##  9 Holger Drachmann         10
## 10 Bjørnstjerne Bjørnson     7
## # ℹ 93 more rows
…
## # A tibble: 1 × 17
##   file       title_da title_en title_sub_da title_sub_en composer author creation classification_1 classification_2 classification_3
##   <chr>      <chr>    <chr>    <chr>        <chr>        <chr>    <chr>  <chr>    <chr>            <chr>            <chr>           
## 1 ../data-c… Saul og… Saul an… Opera i fir… Opera in Fo… Carl Ni… Einar… 1899–19… Stage music      Opera            <NA>            
## # ℹ 6 more variables: classification_4 <chr>, classification_5 <chr>, classification_6 <chr>, history <chr>, performances <list>,
## #   music <list>

We see that the row under performances holds a “tibble”, which is a dataframe. This dataframe contains all the performances of Saul and David, but we cant count how many because it is in a dataframe within a row. But we can unpack this dataframe while retaining all the other information:

cnw %>% 
  filter(title_da == "Saul og David") %>% 
  unnest(performances)

## # A tibble: 112 × 23
##    file      title_da title_en title_sub_da title_sub_en composer author creation classification_1 classification_2 classification_3
##    <chr>     <chr>    <chr>    <chr>        <chr>        <chr>    <chr>  <chr>    <chr>            <chr>            <chr>           
##  1 ../data-… Saul og… Saul an… Opera i fir… Opera in Fo… Carl Ni… Einar… 1899–19… Stage music      Opera            <NA>            
##  2 ../data-… Saul og… Saul an… Opera i fir… Opera in Fo… Carl Ni… Einar… 1899–19… Stage music      Opera            <NA>            
##  3 ../data-… Saul og… Saul an… Opera i fir… Opera in Fo… Carl Ni… Einar… 1899–19… Stage music      Opera            <NA>            
##  4 ../data-… Saul og… Saul an… Opera i fir… Opera in Fo… Carl Ni… Einar… 1899–19… Stage music      Opera            <NA>            
##  5 ../data-… Saul og… Saul an… Opera i fir… Opera in Fo… Carl Ni… Einar… 1899–19… Stage music      Opera            <NA>            
##  6 ../data-… Saul og… Saul an… Opera i fir… Opera in Fo… Carl Ni… Einar… 1899–19… Stage music      Opera            <NA>            
##  7 ../data-… Saul og… Saul an… Opera i fir… Opera in Fo… Carl Ni… Einar… 1899–19… Stage music      Opera            <NA>            
##  8 ../data-… Saul og… Saul an… Opera i fir… Opera in Fo… Carl Ni… Einar… 1899–19… Stage music      Opera            <NA>            
##  9 ../data-… Saul og… Saul an… Opera i fir… Opera in Fo… Carl Ni… Einar… 1899–19… Stage music      Opera            <NA>            
## 10 ../data-… Saul og… Saul an… Opera i fir… Opera in Fo… Carl Ni… Einar… 1899–19… Stage music      Opera            <NA>            
## # ℹ 102 more rows
## # ℹ 12 more variables: classification_4 <chr>, classification_5 <chr>, classification_6 <chr>, history <chr>, isodate <chr>,
## #   startdate <chr>, enddate <chr>, place <chr>, venue <chr>, ensemble <chr>, conductor <chr>, music <list>

There is 112 performances of Saul and David. But this is just for one work. We do the same for the entire dataset and save it to a new data frame, since we are changing dramatically on the form of of the data. We’re making the shift from having one work pr. row to have one performances of a work pr. row:

cnw_performances <- cnw %>%
  unnest(performances) 

Since all the other data have been retained for each performances we can now count to see which work has been performened the most:

cnw_performances %>% 
  count(title_da, sort = TRUE)

## # A tibble: 252 × 2
##    title_da                                                                                        n
##    <chr>                                                                                       <int>
##  1 "Maskarade"                                                                                   602
##  2 "Musik til Adam Oehlenschlägers skuespil \"Aladdin eller Den forunderlige Lampe\", opus 34"   211
##  3 "Jeg bærer med Smil min Byrde"                                                                204
##  4 "Jens Vejmand, opus 21.3"                                                                     155
##  5 "Æbleblomst, opus 10.1"                                                                       121
##  6 "Saul og David"                                                                               112
##  7 "Sang bag Ploven, opus 10.4"                                                                   96
##  8 "Silkesko over gylden Læst!, opus 6.3"                                                         96
##  9 "Musik til Helge Rodes skuespil \"Moderen\", opus 41"                                          92
## 10 "Suite for strygeorkester, opus 1"                                                             87
## # ℹ 242 more rows

Following the same logic we can also examine which city has seen the most performances:

cnw_performances %>% 
  count(place, sort = TRUE)

## # A tibble: 241 × 2
##    place            n
##    <chr>        <int>
##  1 "Copenhagen"  2950
##  2 "Gothenburg"   112
##  3 "Stockholm"    111
##  4 "Odense"        92
##  5 "Aarhus"        88
##  6 ""              55
##  7 "Berlin"        43
##  8 "Aalborg"       42
##  9 "Oslo"          42
## 10 "Ryslinge"      41
## # ℹ 231 more rows
…
Which titles has been performed the most in Denmark:

cnw_performances %>% 
  filter(country == "Danmark") %>% 
  count(title_da, sort = TRUE)

## # A tibble: 251 × 2
##    title_da                                                                                        n
##    <chr>                                                                                       <int>
##  1 "Maskarade"                                                                                   512
##  2 "Jeg bærer med Smil min Byrde"                                                                195
##  3 "Musik til Adam Oehlenschlägers skuespil \"Aladdin eller Den forunderlige Lampe\", opus 34"   157
##  4 "Jens Vejmand, opus 21.3"                                                                     149
##  5 "Æbleblomst, opus 10.1"                                                                       117
##  6 "Sang bag Ploven, opus 10.4"                                                                   89
##  7 "Musik til Helge Rodes skuespil \"Moderen\", opus 41"                                          87
##  8 "Silkesko over gylden Læst!, opus 6.3"                                                         87
##  9 "Sænk kun dit Hoved, du Blomst, opus 21.4"                                                     76
## 10 "Saul og David"                                                                                75
## # ℹ 241 more rows
